NBA DFS Project
…
dfs_master <- dfs %>% 
  select(-gid, -g_time_et, -game_id, -start, -ddp, -yhp) %>% 
  select(-(yh_sal:vmi))

dfs_master

## # A tibble: 21,223 x 21
##    last    first first_last      date team  opp   h_a   team_pts opp_pts minutes
##    <chr>   <chr> <chr>          <dbl> <chr> <chr> <chr>    <dbl>   <dbl>   <dbl>
##  1 Eubanks Drew  Drew Eubanks  2.02e7 sas   cha   H           97     100    1.83
##  2 Eubanks Drew  Drew Eubanks  2.02e7 sas   mil   A          113     120   17.4 
##  3 Eubanks Drew  Drew Eubanks  2.02e7 sas   cle   A          116     110   11.8 
##  4 Eubanks Drew  Drew Eubanks  2.02e7 sas   chi   A          106      99   13.9 
##  5 Eubanks Drew  Drew Eubanks  2.02e7 sas   det   A          109      99   22.1 
##  6 Eubanks Drew  Drew Eubanks  2.02e7 sas   phi   A           99     134   23.5 
##  7 Eubanks Drew  Drew Eubanks  2.02e7 sas   orl   H          104      77   19.0 
##  8 Eubanks Drew  Drew Eubanks  2.02e7 sas   dal   A          104     115    3.83
##  9 Eubanks Drew  Drew Eubanks  2.02e7 sas   okc   H          102     107   12.3 
## 10 Eubanks Drew  Drew Eubanks  2.02e7 sas   nyk   H          119      93   18.2 
## #  with 21,213 more rows, and 11 more variables: gp <dbl>, active <dbl>,
## #   fdp <dbl>, dkp <dbl>, stats <chr>, double_d <dbl>, triple_d <dbl>,
## #   fd_sal <dbl>, fd_change <dbl>, dk_sal <dbl>, dk_change <dbl>

dfs_master

## # A tibble: 21,223 x 21
##    last    first first_last      date team  opp   h_a   team_pts opp_pts minutes
##    <chr>   <chr> <chr>          <dbl> <chr> <chr> <chr>    <dbl>   <dbl>   <dbl>
##  1 Eubanks Drew  Drew Eubanks  2.02e7 sas   cha   H           97     100    1.83
##  2 Eubanks Drew  Drew Eubanks  2.02e7 sas   mil   A          113     120   17.4 
##  3 Eubanks Drew  Drew Eubanks  2.02e7 sas   cle   A          116     110   11.8 
##  4 Eubanks Drew  Drew Eubanks  2.02e7 sas   chi   A          106      99   13.9 
##  5 Eubanks Drew  Drew Eubanks  2.02e7 sas   det   A          109      99   22.1 
##  6 Eubanks Drew  Drew Eubanks  2.02e7 sas   phi   A           99     134   23.5 
##  7 Eubanks Drew  Drew Eubanks  2.02e7 sas   orl   H          104      77   19.0 
##  8 Eubanks Drew  Drew Eubanks  2.02e7 sas   dal   A          104     115    3.83
##  9 Eubanks Drew  Drew Eubanks  2.02e7 sas   okc   H          102     107   12.3 
## 10 Eubanks Drew  Drew Eubanks  2.02e7 sas   nyk   H          119      93   18.2 
## #  with 21,213 more rows, and 11 more variables: gp <dbl>, active <dbl>,
## #   fdp <dbl>, dkp <dbl>, stats <chr>, double_d <dbl>, triple_d <dbl>,
## #   fd_sal <dbl>, fd_change <dbl>, dk_sal <dbl>, dk_change <dbl>
…
